<?php

/**
 * The ajax_cp usually takes XMLHttpRequests and hands them off here for processing
 *
 *                           interface_handler.php
 *                            -------------------
 * @begin                : Saturday, Feb 28, 2007
 * @copyright            : (C) 2007 Recruitage.com
 * @email                : daraburke78@gmail.com
 *
 * 
 **/

class interface_handler
{
	
  var  $now_time="";
  var $show_user_email=""  ;

  /**
   * Construct the interface handler
   *
   */
  function interface_handler()
  {

    $this->now_time=time();

  }

  /**
   * Basically just get all the info for a user from their user_reg_date
   * Deprecated
   */
  function get_user_info($user_reg_date)
  {

    global $userdata ;

    return $userdata['user_show_email'] ;

  }

  /**
   * Ouput the reminders head for the control_panel
   *
   */
  function update_reminders_head()
  {

    return "
   <tr>
    <td colspan='4'>
     <a href='#' onclick=\"return dis_box('reminder_box');\" >REMINDER</a>
    </td>
   </tr>
   <tr class='info_table_bar' >
     <td width='20%'>Time</td>
     <td width='60%'>Reminder</td>
     <td width='10%'>SMS</td>
     <td width='10%' style='text-align:center;'>Delete</td>
   </tr>";

  }

   /**
   * Ouput the reminders for the control_panel
   *
   */
  function update_reminders($user_reg)
  {
	 
    global $userdata ;

    // determine whether this person is admin or not,
    // if they're admin then output them all
    // otherwise, filter it by person
    if ( $userdata['user_level'] == ADMIN )
      {
	$sql = "SELECT remno,text,rem_time,sms,user_reg_date FROM " . REMINDER . " WHERE rem_time < $this->now_time AND SENT != 1";
      }
    else {
	$sql = "SELECT remno,text,rem_time,sms,user_reg_date FROM " . REMINDER . " WHERE rem_time < $this->now_time AND SENT != 1 AND user_reg_date = $user_reg ";
    }

    if ( ! ( $result = mysql_query($sql) ) )
      {
	message_die(GENERAL_ERROR,'Cannot reach reminders ... ','',__LINE__,__FILE__,$sql);
      }
	  
    // build values up and output all the reminders together...
    $time= new timezone();
	   
    // build your innerHTML statement here...
    while( $message = mysql_fetch_assoc($result) )
      {
	
	@extract($message) ;
	
	// TZ here is user independent - not good 
	$rem_time = $time->return_format($rem_time,$userdata['user_timezone'],"D G:i");

	// makes no sense to activate the SMS/Email 
	// facility from here though ..

	// all on the same line here, or the js will
	// pick up the newlines and spaces ..
	if ( $userdata['user_level'] == ADMIN )
	  {

	    // if it's the admin, show every reminder and also show whose reminder it is...
	    $reg_user = $this->user_reg_to_name($user_reg);

	    $output .= "$rem_time : $reg_user {SPLIT_STRING_MARKER}$text{SPLIT_STRING_MARKER}$sms{SPLIT_STRING_MARKER}$remno{SPLIT_STRING_MARKER}" ; 

	  }
	else 
	  {
	    $output .= "$rem_time{SPLIT_STRING_MARKER}$text{SPLIT_STRING_MARKER}$sms{SPLIT_STRING_MARKER}$remno{SPLIT_STRING_MARKER}" ; 
	  }

      }

    switch (count($message))
      {

      case (0) : $output .= "{SPLIT_STRING_MARKER}{SPLIT_STRING_MARKER}{SPLIT_STRING_MARKER}{SPLIT_STRING_MARKER}{SPLIT_STRING_MARKER}{SPLIT_STRING_MARKER}{SPLIT_STRING_MARKER}{SPLIT_STRING_MARKER}{SPLIT_STRING_MARKER}{SPLIT_STRING_MARKER}{SPLIT_STRING_MARKER}{SPLIT_STRING_MARKER}" ; break ;
      case (1) : $output .= "{SPLIT_STRING_MARKER}{SPLIT_STRING_MARKER}{SPLIT_STRING_MARKER}{SPLIT_STRING_MARKER}{SPLIT_STRING_MARKER}{SPLIT_STRING_MARKER}{SPLIT_STRING_MARKER}{SPLIT_STRING_MARKER}" ; break ;
      case (2) : $output .= "{SPLIT_STRING_MARKER}{SPLIT_STRING_MARKER}{SPLIT_STRING_MARKER}{SPLIT_STRING_MARKER}" ; break ;
      default : break ;

      }

    // let's just make a json array
    $rem_array = array('reminder_string'=>$output);

    $json_string = json_encode($rem_array) ;

    return $json_string ;

  }

  /**
   * Swap user_reg for username
   *
   */
  function user_reg_to_name($user_reg)
  {
    
    $sql = "SELECT username FROM " . USERS . " WHERE user_regdate = '$user_reg' ";

    if ( ! ( $result = mysql_query($sql) ) )
      {
	message_die(GENERAL_ERROR,'Cannot reach the users table... ','',__LINE__,__FILE__,$sql);
      }
	  
    while( $row = mysql_fetch_assoc($result) )
      {
	$username = $row['username'] ;
      }
    
    return $username ;
    
  }

  /**
   * Kill reminder in the interface window
   *
   */
  function kill_reminder($remno)
  {
    // make sure you don't miss a message through latency 
    $safe_time = ( $this->now_time - 8) ;
	    
    $sql = "UPDATE " . REMINDER . " SET sent = '1' WHERE remno = '$remno' ";
	    
    // cannot use a $db object here ... it's not initialized		     
    if ( ! ( $result = mysql_query($sql) ) )
      {
	message_die(GENERAL_ERROR,'Could not connect to database for reminders kill','',__LINE__,__FILE__,$sql);
      }

    // send back number of reminder to disappear 
    // from the control panel.
    echo "kill-reminder:$remno";

  }

  /**
   * Change the teacher status
   *
   */
  function teacher_change_stat($id)
  {
    $sql = "SELECT status FROM " . TEACHERS . " WHERE teacher_id = '$id'";
    
    // cannot use a $db object here ... it's not initialized				
    if ( ! ( $result = mysql_query($sql) ) )
      {
	message_die(GENERAL_ERROR,'Could not connect to database for status change','',__LINE__,__FILE__,$sql);
      }
    
    $row = mysql_fetch_row($result);

    switch($row[0])
      {
      case '0' : $sql_bit = 1; echo "$id"."|"."Recruiter" ; break ;
      case '1' : $sql_bit = 0; echo "$id"."|"."ETK"  ; break ; 
      default :  break ; 
      }

    $sql = "UPDATE " . TEACHERS . " SET status = $sql_bit WHERE teacher_id='$id'" ; 

    if ( ! ( $result = mysql_query($sql) ) )
      {
	message_die(GENERAL_ERROR,'Could not connect to database for status change','',__LINE__,__FILE__,$sql);
      }

    return 0; 
 
  }
  
  /**
   * Delete the teacher status (teacher entry)
   *
   */
  function teacher_delete_stat($id)
  {
	  
    $sql = "UPDATE " . TEACHERS . " SET status = -1 WHERE teacher_id='$id' ";

    if ( ! ( $result = mysql_query($sql) ) )
      {
	message_die(GENERAL_ERROR,'Could not connect to database for status delete','',__LINE__,__FILE__,$sql);
      }
	
    return 0; 
  }	

  /**
   * Delete the recruiter
   *
   */
  function recruiter_delete_stat($id)
  {
    $sql = "UPDATE recruiter_jobs SET status = -1 WHERE recruiter_jobs_id='$id' ";

    if ( ! ( $result = mysql_query($sql) ) )
      {
	message_die(GENERAL_ERROR,'Could not connect to database for status delete',__LINE__,__FILE__,$sql);
      }
    
    return 0; 

  }
  
  /**
   * Delete the school
   *
   */
  function school_delete_stat($id)
  {

    $sql = "UPDATE " . SCHOOL_JOBS . " SET status = -1 WHERE school_jobs_id='$id' ";
    
    if ( ! ( $result = mysql_query($sql) ) )
      {
	message_die(GENERAL_ERROR,'Could not connect to database for status delete',__LINE__,__FILE__,$sql);
      }
    
    return 0; 
  }

  /**
   * Delete the email 
   *
   */
  function email_delete($email_id,$user_reg='')
  {

    $mail = new imailer($user_reg);

    if ( $mail->delete_message($email_id) )
      {
	echo 'Could not delete message' ;
      }
    else {

      return 0; 

    }
	
  }


  /**
   * Get the email history. Given an email address, output history in JSON.
   *
   */
  function get_email_history($email)
  {

    global $userdata ;

    // mail_mem will be used to talk to the db
    $mail_mem = new mail_manager();

    // is this email hex encoded ?
    if ($userdata['show_user_email'])
      {
	$email = base64_decode($email);
      }

    // this will fetch the mail history for that email address.
    $email_history = $mail_mem->cp_mail_reader($email);

    // build the email history array
    $email_history_array = array();
    $email_history_array['email_history'] = ($email_history) ;

    echo json_encode($email_history_array); 

  }

  /** 
   * Output the email title bar
   * 
   */ 
  function update_emails_head()
  {

    return "
          <tr>
            <td width='10%' >
             <a href='#' onclick=\"dis_box('email_box');\" >EMAIL</a>
            </td>
            <td width='40%' ></td>
            <td width='40%' ></td>
            <td width='10%' ></td>
          </tr>
          <tr class='info_table_bar' >
           <th ></th>
           <th>Senders:</th>
           <th>Subject:</th>
           <th class='delete' >Delete</th>
          </tr>";

  }



  /**
   * Update the emails from a XMLHttpRequest. Ouput in JSON.
   *
   */
  function update_emails($user_reg_date)
  {
    
    // userdata
    global $userdata ;

    // open the imap object
    $imail = new imailer($user_reg_date); 

    // the json arr
    $json_arr = array() ;

    // open the head array and take out email headers
    $head_array=$imail->find_headers();

    // records come out of head array as all records seperated by a <br>
    // we explode them to get the individual records,
    // then we count each record out simultaneously

    // parse $email_from into an array
    $email_from = explode( '<br>',$head_array['from'] );

    // clean email_from array
    $email_from = array_map("input_check",$email_from);
    $email_from = array_map("trim_arr",$email_from);

    // replace all the tags in the subject
    // clean email_subject by removing the <>
    // address in <> are handled here...
    //$email_subject = preg_replace('<','&lt;',$head_array['subject']);
    //$email_subject = preg_replace('>','&gt;',$head_array['subject']);
    $email_subject = htmlentities($head_array['subject'], ENT_QUOTES);

    // parse email subject into an array
    $email_subject = explode( '<br>',$head_array['subject']);

    // clean email subject array
    $email_subject = array_map("input_check",$email_subject);

    // take out the email id
    $email_id = explode( '<br>',$head_array['message_id'] );

    // the two trailing empty emails are annoying. Kill Them.
    $trailers = count($email_from)-2;
	       
    for( $x=$trailers ; $x >= 0 ; $x-- )
      {

	$email_name= name_getter($email_from[$x]);
		   
	// if it has no name then it's probably a ghost email
	if ( $email_name == '' ){continue;}

	$email_id[$x] = str_replace(' ', '', $email_id[$x]);

	// decode from base64 if it's euc-kr ?
	$email_subject_text = $email_subject[$x];
		   
	// base 64 always seems to come with a euc-kr 
	// this should be a temporary hack 
	if ( stristr($email_subject_text,'=?euc-kr?B?')  )
	  {
	    $email_subject_text = str_replace('=?euc-kr?B?','',$email_subject[$x]);
	    $email_subject_text = imap_base64($email_subject_text);		       
	  }

	// email from comes in "david <david@email.com>" form
	// find the text in the brackets, then clean it
	if (stristr($email_from[$x],'&lt;'))
	  {
	    preg_match('/&lt;(.*)&gt;/',$email_from[$x],$matches);
	    $email_user = $matches[1];
	  }
	else {
	  $email_user = $email_from[$x];
	}
	
	// if it's set to user not to see email address, then just base64 it.
	if ( !( $userdata['user_show_email'] ) )
	  {
	    //$email = x_Encrypt($email);
	    $email_user = base64_encode($email_user);
	  }

	// let's use JSON here ...
	$email_arr = array( 'email_id' => $email_id[$x] ,
			     'email_user' => $email_user, 
			     'email_name' => html_entity_decode($email_name,ENT_QUOTES), 
			     'email_subject_text' => $email_subject_text, 
			     'email_from' => $email_from[$x],
			     'user_reg_date' => $user_reg_date
			     );

	$emails_json_array_list .= json_encode($email_arr) . SEPERATOR ;

      }  
    

    return $emails_json_array_list;

  }

  /**
   * Output the teacher bar
   *
   */
  function update_teachers_head()
  {

    return "
   <tr>
    <td colspan='11' >
     <a href='#' onclick=\"return dis_box('teachers_box');\" >TEACHERS</a>
    </td>
   </tr>
   <tr class='info_table_bar' >
     <th></th>
     <th>Name:</th>
     <th>City:</th>
     <th>Age:</th>
     <th>Call Time:</th>
     <th>Status:</th>
     <th>Start Dates:</th>
     <th style='text-align:center;'>Delete:</th>
     <th>Submitted:</th>
     <th>Email:</th>
     <th style='text-align:center;'>Phone:</th>
   </tr>";

  }


  /**
   * Output the teachers info in response to an XMLHttpRequest. Ouput in JSON.
   *
   */
  function update_teachers($user_reg_date)
  {

    global $userdata ;

    $sql = "SELECT *, DATEDIFF(NOW(),submit_time) as date_diff FROM " . TEACHERS . " WHERE status != -1 ORDER BY arrival";  
	  
    if ( ! ( $result = mysql_query($sql) ) )
      {
	message_die(GENERAL_ERROR,'Cannot reach reminders ... ','',__LINE__,__FILE__,$sql);
      }
	  
    while( $message = mysql_fetch_assoc($result) )
      {
	
	@extract($message) ;

	// change the DATE arrival to text
	$arrival=arrival_to_text($arrival);

	$city_teachers=location($location);
		
	// calculate age of teacher 
	$birthyear=$birthyear += 1899 ;
	$birthyear -= date("Y") ; 
	$birthyear *= -1 ;
		
	// gather ring-time suitability
	$ring_time= new timezone();
	$time_array=$ring_time->time_fetch($from_time, $until_time, $timezone);
		
	// output teacher/recruiter status 
	if($status == 1){ $status='Recruiter'; }
	else if ($status == 0){ $status='ETK'; }
	else{ $status = 'Unknown'; }
		
	// leave in this phone function for every phone number...
	$phone = phone_chopper(phone_cleaner($phone));
	$phone = $country_code.$phone;
	
	// this will output the phone mode 
	// anon vs written ?
	// skype vs sip vs callback ?
	$phone_mode = cp_phone_mode($phone,$user_reg_date);
		
	// no idea what this does ;-)
	$teachers_name = $name;
	//$teachers_name = append_sid("$teachers_name", true, true);
	
	// email link color, make link red if you mail_memory is empty
	$mail = new mail_manager();
	$mail_contents = $mail->mail_response($email);

	// if mail contents is empty, output red
	if ($mail_contents == '')
	  {
	    $mail_color = '#00ccff';
	  }
	else 
	  {
	    $mail_color = '#000000';
	  }

	// teachers first name for the candidate email form
	$teacher_fn = explode(' ',$teachers_name);
	$teacher_fn = ucfirst($teacher_fn[0]);		
    
	// instead of encrypting, let's just base64 it
	// I was using xor encryption but I couldn't keep the 
	// chars from straying outside of utf-8

	// if it's set to user not to see email address, then just base64 it.
	if ( !( $userdata['user_show_email'] ) )
	  {
	    //$email = x_Encrypt($email);
	    $email = base64_encode($email);
	  }
 
	$teachers_arr = array('teacher_id' => $teacher_id,
			      'sid' => $sid,
			      'teachers_name' => html_entity_decode($teachers_name,ENT_QUOTES),
			      'city_teachers' => $city_teachers,
			      'birthyear' => $birthyear,
			      'from_time' => $time_array['from_time'],
			      'until_time' => $time_array['until_time'],
			      'status' => $status,
			      'arrival' => $arrival,
			      'date_diff' => $date_diff,
			      'email' => $email,
			      'teacher_fn' => $teacher_fn,
			      'mail_color' => $mail_color,
			      'phone_mode' => $phone_mode
			      );

	$teachers_json_array_list .= json_encode($teachers_arr) . SEPERATOR ;

      }

    return $teachers_json_array_list ;
	 
  }


  /**
   * Output the schools bar..
   *
   */
  function update_schools_head()
  {

    return "
   <tr>
    <td colspan='8' >
     <a href='#' onclick=\"return dis_box('schools_box');\" >SCHOOL JOBS</a>
    </td>
   </tr>
   <tr class='info_table_bar' id='schools_update_marker' >
      <th></th>
      <th>Name:</th>
      <th>City:</th>
      <th>Start Dates:</th>
      <th>Positions :</th>
      <th style='text-align:center;' >Delete</th>
      <th>Email:</th>
      <th style='text-align:center;' >Phone:</th>
   </tr>";

  }


  /** 
   * Output the schools data in response to an XMLHttpRequest. Ouput in JSON format.
   *
   */
  function update_schools($user_reg_date)
  {
	
	 global $userdata;

	  // the admin gets to see all of the schools,
	  // the users get to see only their schools 
	  if ( $userdata['user_level'] == ADMIN )
	    {
	      $sql = "SELECT * FROM " . SCHOOL_JOBS . " WHERE status != -1  ORDER BY arrival "; 
	    }
	  else 
	    {
	      $sql = "SELECT * FROM " . SCHOOL_JOBS . "  WHERE status != -1 AND user_reg_id = $user_reg_date ORDER BY arrival";
	    }

	  if ( ! ( $result = mysql_query($sql) ) )
	    {
	      message_die(GENERAL_ERROR,'Cannot reach reminders ... ','',__LINE__,__FILE__,$sql);
	    }
	  
	  while( $message = mysql_fetch_assoc($result) )
	    {
	
	        @extract($message) ;
	

		// change the DATE arrival to text
		$arrival=arrival_to_text($arrival);
		
		$city_schools=location($city);
	
		// the ubiqutous phone function...
		// lets just take it that this number is in Korea
		$phone = phone_cleaner(phone_country(phone_chopper($phone),'korea'));
	
		// this will output the phone mode 
		// anon vs written ?
		// skype vs sip vs callback ?
	        $phone_mode = cp_phone_mode($phone,$user_reg_date,'recruiter');

		$contact = ucfirst($contact);
		

		// handle the email encryption/obfuscation here
		// if it's set to user not to see email address, then just base64 it.
		if ( !($userdata['show_user_email']) )
		  {
		    //$email = x_Encrypt($email);
		    $email = base64_encode($email);
		  }
		
		$schools_arr = array( 'school_jobs_id' => $school_jobs_id ,
				      'sid' => $sid, 
				      'school' => html_entity_decode($school,ENT_QUOTES), 
				      'city_schools' => $city_schools, 
				      'arrival' => $arrival,
				      'number_teachers' => $number_teachers,
				      'email' => $email,
				      'contact' => $contact,
				      'phone_mode' => $phone_mode
				    );

		$schools_json_array_list .= json_encode($schools_arr) . SEPERATOR ;

         }


	 return $schools_json_array_list ;

      }

  /**
   * Output the partner recruiters title...
   *
   */
  function update_recruiters_head()
  {

    return "
   <tr>
    <td colspan='8' >
     <a href='#' onclick=\"return dis_box('recruiters_box');\" >RECRUITER JOBS</a>
    </td>
   </tr>
   <tr class='info_table_bar' id='recruiters_update_marker' >
      <th></th>
      <th>Name:</th>
      <th>City:</th>
      <th>Start Dates:</th>
      <th>Positions:</th>
      <th style='text-align:center;' >Delete</th>
      <th>Email:</th>
      <th style='text-align:center;' >Phone:</th>
   </tr>";

  }


  /**
   * Update the partners recruiters data in response to an XMLHttpRequest. Output in JSON format.
   *
   */
  function update_recruiters($user_reg_date)
  {

    global $userdata ;
	
    // I've put in a disply:none here cause I don't want 
    // to show recruiters at the moment ...
    
    $sql = "SELECT * FROM " . RECRUITER_JOBS . " WHERE status != -1  ORDER BY arrival"; 
    
    if ( ! ( $result = mysql_query($sql) ) )
      {
	message_die(GENERAL_ERROR,'Cannot reach reminders ... ','',__LINE__,__FILE__,$sql);
      }
	  
    while( $message = mysql_fetch_assoc($result) )
      {
	
	@extract($message) ;
	
	// change the DATE arrival to text
	$arrival=arrival_to_text($arrival);

	$city_recruiters=location($city);

	// run it through the phone cleaner
	$phone = phone_cleaner(phone_chopper($phone));
	
	// this will output the phone mode 
	// anon vs written ?
	// skype vs sip vs callback ?
	$phone_mode = cp_phone_mode($phone,$user_reg_date,'recruiter');

	$contact = ucfirst($contact);
		
	// if it's set to user not to see email address, then just base64 it.
	if ( !( $this->show_user_email) )
	  {
	    //$email = x_Encrypt($email);
	    $email = base64_encode($email);
	  }

	$rec_arr = array( 'recruiter_jobs_id' => $recruiter_jobs_id, 
			  'sid' => $sid,
			  'school' => html_entity_decode($school,ENT_QUOTES),
			  'city' => $city_recruiters,
			  'arrival' => $arrival,
			  'number_teachers' => $number_teachers,
			  'email' => $email,
			  'contact' => $contact,
			  'phone_mode' => $phone_mode
			  );
		
	$recruiters_json_array_list .=  json_encode($rec_arr) . SEPERATOR  ;


      }

    return $recruiters_json_array_list ;

  }


  /**
   * Function to take the job_id and find out which user_reg_id inputted it...
   *
   */
  function jobid_to_regid($job_id)
  {
    
    $sql = "SELECT user_reg_id FROM " . SCHOOL_JOBS_ID . " WHERE school_jobs_id = '$job_id' ";
    
    if ( ! ( $result = mysql_query($sql) ) )
      {
	message_die(GENERAL_ERROR,'Cannot reach the school jobs table ... ','',__LINE__,__FILE__,$sql);
      }
	  
    while( $row = mysql_fetch_assoc($result) )
      {
	$reg_id = $row['user_reg_id'] ;
      }
    
    return $reg_id ;
    
  }

  /**
   * Output the matches bar
   *
   */
  function update_matches_head()
  {

    return "
   <tr>
    <td colspan='6' >
     <a href='#' onclick=\"return dis_box('success_box');\" >TRACK MATCHES</a>
    </td>
   </tr>
   <tr class='info_table_bar' id='matches_update_marker' >
      <th>Success Match:</th>
      <th>Name:</th>
      <th>Dates:</th>
      <th>School Mail:</th>
      <th style='text-align:center;'>Failed Mail:</th>
      <th style='text-align:center;'>Delete:</th>
   </tr>";

  }

  
  /**
   * Update the matches the recruiter must deal with at the second level. Respone to XMLHttpResponse, ouput as JSON.
   *
   */
  function update_matches($user_reg_date)
  {
	
    // userdata
    global $userdata;

    $sql = "SELECT S1.teacher_id, S1.job_id, S1.teacher_notes, 
                         S1.job_notes, S1.teacher_response, S1.job_response, teachers.arrival
                         FROM " . SENT_MATCH . " as S1 
                         LEFT JOIN teachers ON S1.teacher_id = teachers.teacher_id
                          WHERE ( S1.success = 1 
                          OR S1.teacher_response = 1 
                          OR S1.teacher_response = 0
                          OR S1.job_response = 1
                          OR S1.job_response = 0
                          )
                         AND S1.deleted != 1 AND teachers.status != -1";

    if ( ! ( $result = mysql_query($sql) ) )
      {
	message_die(GENERAL_ERROR,'Cannot reach reminders ... ','',__LINE__,__FILE__,$sql);
      }
	  
    while( $message = mysql_fetch_assoc($result) )
      {

	@extract($message) ;
		
	$user_reg_id = $this->jobid_to_regid($job_id);		

	// determine whether this person is admin or not,
	// if they're admin then output them all
	// otherwise, filter it by person
	if ( ( $userdata['user_level'] == USER ) && ( $userdata['user_regdate'] != $user_reg_id ) )
	  {
	    continue ;
	  }

	$color_array = array('light-blue'=>'#dbf4fb',
			     'light-red'=>'#fda7a1', 
			     'dark-blue'=>'#00ccff', 
			     'dark-red'=>'#ed736a');

	// basically this is my logic to color code converter ...
	if ( !(is_null($teacher_response)) && $teacher_response == 0 ) { $job_color=$color_array['light-red']; }
	else if ( $teacher_response == 1 && $job_response == 1 ) { $job_color = $color_array['dark-blue']; }
	else if( $teacher_response == 1 && (is_null($job_response)) ) { $job_color = $color_array['light-blue']; }
	else if( $teacher_response == 1 && $job_response == 0) { $job_color = $color_array['dark-red']; }
	  	 
	$teacher_name = id_to_name($teacher_id,'teachers') ;
	$school_job_name = id_to_name($job_id,'school_jobs') ;
	$recruiter_job_name = id_to_name($job_id,'recruiter_jobs') ;
	$job_name= $recruiter_job_name . $school_job_name ;

	// arrival
	$arrival = arrival_to_text($arrival);

	// determine whether this came from the recruiter or school pages...
	 
	if( $recruiter_job_name == '' )
	  { 
	    $which_page = 'school_gallery' ;
	    $table_id = 'school';
	  }
	else
	  { 
	    $which_page = 'recruiter_gallery'; 
	    $table_id='recruiter';
	  }

	$matches_arr = array ( 'job_color' => $job_color,
			       'teacher_id' => $teacher_id,
			       'job_id' => $job_id,
			       'table_id' => $table_id,
			       'teacher_name' => html_entity_decode($teacher_name,ENT_QUOTES),
			       'arrival' => $arrival,
			       'teacher_notes' => html_entity_decode($teacher_notes,ENT_QUOTES),
			       'which_page' => $which_page,
			       'job_name' => $job_name,
			       'job_notes' => html_entity_decode($job_notes,ENT_QUOTES)
			       );

	$matches_json_array_list .= json_encode($matches_arr) . SEPERATOR ;

      }

    return $matches_json_array_list ;
	 
 
  }

  /**
   * Update the knowledge base update facility ...
   *
   */
  function knowledge_update($rec_id,$text)
  {
    
    // replace the text here with the number...
    $rec_id = str_replace('rec_id_','',$rec_id);
    
    $sql = "UPDATE " . KNOWLEDGE_BASE . " SET knowledge_text = '$text' 
                    WHERE knowledge_rec_id = '$rec_id'" ;
    
    if ( ! ( $result = mysql_query($sql) ) )
      {
	message_die(GENERAL_ERROR,'Cannot reach reminders ... ','',__LINE__,__FILE__,$sql);
      }

  }


  /**
   * Add to knowledge base from an XMLHttpRequest
   *
   */
  function add_knowledge($section,$title,$text)
  {
	 
    $sql = "INSERT INTO " . KNOWLEDGE_BASE . " (knowledge_section, knowledge_title, knowledge_text)                  
                  VALUES ('$section','$title','$text')" ;

    if ( ! ( $result = mysql_query($sql) ) )
      {
	message_die(GENERAL_ERROR,'Cannot reach reminders ... ','',__LINE__,__FILE__,$sql);
      }

  }
  
  /**
   * Poll the db to see if there if the chat client is fired up..
   *
   */
  function update_chat_poll()
  {
    
    $sql = "SELECT config_value from " . CONFIG . " where config_name = 'chat_status' " ;
    
    if ( ! ( $result = mysql_query($sql) ) )
      {
	message_die(GENERAL_ERROR,'Cannot reach chat status ... ','',__LINE__,__FILE__,$sql);
      }
    
    // test to see if the status is true
    if ( $status[0] == 1 )
      {
	echo "<!-- index_marker -->1" ;
      }
    else
      {
	echo "<!-- index_marker -->0" ;
      }

  }
  
  /**
   * Output the leads bar
   *
   */
  function update_leads_head()
  {

    return "
   <tr>
    <td colspan='7' >
     <a href='#' onclick=\"return dis_box('leads_box');\" >POSSIBLE LEADS</a>
    </td>
   </tr>
   <tr class='info_table_bar' id='leads_update_marker' >
      <th width='8%'>Send Offer</th>
      <th>Name:</th>
      <th width='10%'>Multi-Send:</th>
      <th width='30%'>Comments:</th>
      <th>Area:</th>
      <th>Dates:</th>
      <th width='8%' style='text-align:center;'>Delete:</th>
   </tr>";

  }


  /**
   *  Possible leads here that the recruiter has to decide whether to send or not... Response to an XMLHttpRequest. Ouput in JSON.
   *
   */
  function update_leads($user_reg_date)
  {

    global $userdata;


    $i = 0;

    // replace this non-working recruiter query
    $sql = "select T1.name, T1.school, T1.t_id, T1.j_id, T1.city, T1.location, T1.t_arrival, T1.j_arrival
                         from (select
                                t.teacher_id as t_id
                                , j.recruiter_jobs_id as j_id
                                , t.name
                                , j.school
                                , j.city
                                , t.location
                                , j.arrival as j_arrival
                                , t.arrival as t_arrival
                                from " . TEACHERS . " as t
                                inner
                                join " . RECRUITER_JOBS . " as j
                                     on t.location in ( j.city, 1 ) 
                                     and t.arrival between date_sub( j.arrival, interval 20 day) 
                                                   and date_add( j.arrival, interval 20 day)
                                     and t.status != -1 
                                     and j.status != -1
                               ) as T1
                                  left outer
                                       join " . SENT_MATCH . " as s
                                       on s.teacher_id = T1.t_id
                                          and s.job_id = T1.j_id
                                          where s.teacher_id is null 
                                          and s.job_id is null
         ";


         if ( ! ( $result = mysql_query($sql) ) )
         {
	     message_die(GENERAL_ERROR,'Cannot reach reminders ... ','',__LINE__,__FILE__,$sql);
	 }

         while( $row_match = mysql_fetch_assoc($result) )
         {

	        @extract($row_match) ;
		
		 $colors=array('#66FFFF','#99CCFF','#FFCCFF','#FFFF66','#66FFCC','#FFFFCC','#66FF66','#FFCC66','#FF9999','#99CCFF','#CCFFCC');  	   
    		
		 $color=$colors[ $i % count($colors)]; $i++;
		 $teacher_name = $row_match['name'];
		 $recruiter_name = $row_match['school'];
		 $teacher_location = location($row_match['location']);
		 $recruiter_location = location($row_match['city']);
		 $teacher_arrival = arrival_to_text($row_match['t_arrival']); 
    	         $recruiter_arrival = arrival_to_text($row_match['j_arrival']);	      	    
		 $teacher_id = $row_match['t_id'];
		 $recruiter_jobs_id = $row_match['j_id'] ;
		 
		 $rleads_arr = array ( 'color' => $color,
				       'teacher_id' => $teacher_id,
				       'job_id' => $recruiter_jobs_id,
				       'teacher_name' => html_entity_decode($teacher_name,ENT_QUOTES),
				       'teacher_location' => $teacher_location,
				       'teacher_arrival' => $teacher_arrival,
				       'job_name' => html_entity_decode($recruiter_name,ENT_QUOTES),
				       'job_location' => $recruiter_location,
				       'job_arrival' => $recruiter_arrival,
				       'type' => 'recruiter',
				       'letter' => 'r',
				       'class_name' => 'recruiter_send'
				       );

		 
        	 $leads_json_array_list .= json_encode( $rleads_arr ) . SEPERATOR ;

         }

	$i = 0;

	// individual views for individual people
	if ($userdata['user_level']==USER)
	  {
	    $sql_school_add = " and j.user_reg_id = $user_reg_date";
	  }

	$sql_school = "select T1.name, T1.school, T1.t_id, T1.j_id, T1.city, T1.location, T1.t_arrival, T1.j_arrival
                         from (select
                                t.teacher_id as t_id
                                , j.school_jobs_id as j_id
                                , t.name
                                , j.school
                                , j.city
                                , t.location
                                , j.arrival as j_arrival
                                , t.arrival as t_arrival
                                from teachers as t
                                inner
                                join school_jobs as j
                                     on t.location in ( j.city, 1 ) 
                                     and t.arrival between date_sub( j.arrival, interval 20 day) 
                                                   and date_add( j.arrival, interval 20 day)
                                     and t.status != -1 
                                     and j.status != -1 ".$sql_school_add."
                               ) as T1
                                  left outer
                                       join " . SENT_MATCH . " as s
                                       on s.teacher_id = T1.t_id
                                          and s.job_id = T1.j_id
                                          where s.teacher_id is null
                                          and s.job_id is null ";


         if ( ! ( $result_school = mysql_query($sql_school) ) )
         {
	     message_die(GENERAL_ERROR,'Cannot reach reminders ... ','',__LINE__,__FILE__,$sql_school);
	 }
	  
         while( $row_match_school = mysql_fetch_assoc($result_school) )
         {

	   @extract($row_match_school);
	
	   $colors=array('#66FFFF','#99CCFF','#FFCCFF','#FFFF66','#66FFCC','#FFFFCC','#66FF66','#FFCC66','#FF9999','#99CCFF','#CCFFCC');  	   

	   $color=$colors[ $i % count($colors)]; $i++;
	   $teacher_name = $row_match_school['name'];
	   $school_name = $row_match_school['school'];
	   $teacher_location = location($row_match_school['location']);
	   $school_location = location($row_match_school['city']);
	   $teacher_arrival = arrival_to_text($row_match_school['t_arrival']); 
    	   $school_arrival = arrival_to_text($row_match_school['j_arrival']);	      	    
	   $teacher_id = $row_match_school['t_id'];
	   $school_jobs_id = $row_match_school['j_id'];
	   $school_name=str_replace(' ','',$school_name);

	   $sleads_arr = array ( 'color' => $color,
				 'teacher_id' => $teacher_id,
				 'job_id' => $school_jobs_id,
				 'teacher_name' => html_entity_decode($teacher_name,ENT_QUOTES),
				 'teacher_location' => $teacher_location,
				 'teacher_arrival' => $teacher_arrival,
				 'job_name' => html_entity_decode($school_name,ENT_QUOTES),
				 'job_location' => $school_location,
				 'job_arrival' => $school_arrival,
				 'type' => 'school',
				 'letter' => 's',
				 'class_name' => 'recruiter_send'
				 );


	   $leads_json_array_list .= json_encode( $sleads_arr ) . SEPERATOR ;

	}  

    	
	 // let the client decide whether to update or not..
	 return $leads_json_array_list ; 

       }

  /**
   * This is for the alpahbetical school contact form search function. It's brought in here on a $_GET request ... it has been replaced by telephone search it appears..
   *
   */
  function check_number($number) 
  {

    $number = preg_replace('/ /','',$number);
    $number = '+'.$number;
        
    $sql = "SELECT telephone,contact,email,notes,date FROM " . TEL_CONTACT . " WHERE telephone LIKE '$number%' ";

    // cannot use a $db object here ... it's not initialized				
    if ( ! ( $result = mysql_query($sql) ) )
      {
	message_die(GENERAL_ERROR,'Could not connect to database for status change','',__LINE__,__FILE__,$sql);
      }
	    	 
    while ( $row = mysql_fetch_row($result) )
      {

	// redo this in JSON...
	$output = '~' . $row[0] . '~' . $row[1] . '~' . $row[2] . '~' . $row[3] . '~' . $row[4] ;
	echo $output ;
      }


  }

  /**
   * This is for the alpahbetical school-contact-form search function...it's brought in here on a $_GET request ... I'll probably JSON this...
   *
   */
  function school_search($letter)
  {
	    
    $sql = "SELECT title,contact,email,date,telephone,notes,organization,tel_id FROM " . TEL_CONTACT . " WHERE organization LIKE '$letter%' ";

    // cannot use a $db object here ... it's not initialized				
    if ( ! ( $result = mysql_query($sql) ) )
      {
	message_die(GENERAL_ERROR,'Could not connect to database for status change','',__LINE__,__FILE__,$sql);
      }
	    	 
    $output =  'GET_REQUEST_SCHOOL_SEARCH';
	    
    // have an increasing id here for identification
    $id = 0 ;

    while ( $row = mysql_fetch_row($result) )
      {

	// assign each values it's own id-on-page,
	// not a relative one from it's table ...
	// many elements aren't considered .elements['']
	// of their parent table eg. div, span, a 
	$form_id = 'form_id_'.$id ;
	$div_id = 'div_id_'.$id ;
	$organ_id = 'organ_id_'.$id;
	$contact_id = 'contact_id_'.$id;
	$email_id = 'email_id_'.$id;
	$tel_id = 'tel_id_'.$id;
	$notes_id = 'notes_id_'.$id;
	$title_id = 'title_id_'.$id;

	// record id take from db
	$record_id = 'record_id_'.$row[7];

	// If there is a title, then add a space after it...
	if ( $row[0] != '' )
	  {
	    $row[0] = $row[0].' ';
	  }

	$output .= "
                      <div style='clear:both;' id='$record_id' >
                       <form action='#' method='post' id='$form_id' >
                       <table width='100%'>
                         <tr>
                           <th>
         <input id='$organ_id' type='text' name='organization' class='input_node' value='$row[6]' />
                           </th><input type='hidden' name='rec_id' value='$row[7]' />
                           <td align='right' >$row[3]</td>
                         </tr>
                         <tr>
                          <td><span id='$title_id'>$row[0]</span>
         <input type='text' id='$contact_id' name='contact' class='input_node' size='16' value='$row[1]' />
                          </td>
                          <td rowspan='3' >
                           <textarea id='$notes_id' name='notes' class='textarea_node' cols='35' />$row[5]</textarea>
                          </td>
                         </tr>
                         <tr>
                          <td width='40%'>
                            <div id='$div_id'>
                 <a id='$email_id' href='/form.php?candidate_email_form=".$row[2]."&name=".$row[0].$row[1]."'>
                            $row[2]
                           </a>
                            </div>
                          </td>
                         </tr>
                         <tr>
                           <td>
                           <input id='$tel_id' name='telephone' class='input_node' value='$row[4]' />
                           </td>
                         </tr>
                         <tr><!-- School Search -->
                           <td colspan='2' align='right'>
                <a href='#' onclick=\"del_school_entry('$record_id');return false;\" >Delete</a>&nbsp;&nbsp;
                <a href='#' onclick=\"switch_to_select('$title_id','$row[0]');
            mask_link_form('school_search','$tel_id');
            switch_link_input('$form_id','email','$row[2]','$div_id');
            return false;\" />Edit</a>
                &nbsp;&nbsp;
                <a href='#' onclick=\"unmask_link_form('school_search','$tel_id');
              switch_input_link('$form_id','email','$row[0]','$row[1]','$email_id','$div_id');
              switch_to_title('$title_id');
              save_school_entry('$row[7]','$form_id','$email_id');
              return false;\" >Save</a>
                           </td>
                         </tr>
                       </table>
                       </form>
                      </div>";
		
	// increment form id
	$id++;

      }

    echo $output ;

  }

  /**
   * This is for the alpahbetical school-contact-form search it's brought in here on a $_GET request ...
   *
   */
  function contact_search($letter,$reg_date)
  {

    global $userdata ;
	    
    $sql = "SELECT title,contact,email,date,telephone,notes,organization,tel_id FROM " . TEL_CONTACT . " WHERE contact LIKE '$letter%' ";

    // cannot use a $db object here ... it's not initialized				
    if ( ! ( $result = mysql_query($sql) ) )
      {
	message_die(GENERAL_ERROR,'Could not connect to database for status change','',__LINE__,__FILE__,$sql);
      }

    $output =  'GET_REQUEST_CONTACT_SEARCH' ;

    // have an increasing id here for identification
    $id = 0 ;

    while ( $row = mysql_fetch_row($result) )
      {
		 
	// assign each values it's own id-on-page,
	// not a relative one from it's table ...
	// many elements aren't considered .elements['']
	// of their parent table eg. div, span, a 
	$form_id = 'form_id_'.$id ;
	$div_id = 'div_id_'.$id ;
	$organ_id = 'organ_id_'.$id;
	$contact_id = 'contact_id_'.$id;
	$email_id = 'email_id_'.$id;
	$tel_id = 'tel_id_'.$id;
	$notes_id = 'notes_id_'.$id;
	$title_id = 'title_id_'.$id;

	// record id take from db
	$record_id = 'record_id_'.$row[7];

	// title selected
	$title_selected = "selected='Selected'";

	// modify the phone
	$phone = cp_phone_mode($row[4],$userdata['user_regdate']);

	$output .= "<div style='clear:both;' id='$record_id' >
                      <form action='#' method='post' id='$form_id' >
                       <table width='100%'>
                         <tr>
                           <th><span id='$title_id'>$row[0]</span>
 <input type='text' id='$contact_id' name='contact' size='16' class='input_node'  value='$row[1]' />
                           </th><input type='hidden' name='rec_id' value='$row[7]' />
                          
                          <td align='right' >$row[3]</td>
                         </tr>
                         <tr>
                          <td>         
         <input id='$organ_id' type='text' name='organization' class='input_node' value='$row[6]' />
                          </td>
                          <td rowspan='3' >
                           <textarea id='$notes_id' name='notes' class='textarea_node' cols='35' />$row[5]</textarea>
                          </td>
                         </tr>
                         <tr>
                          <td width='40%'>
                            <div id='$div_id'>
                 <a id='$email_id' href='/form.php?candidate_email_form=".$row[2]."&name=".$row[0].$row[1]."'>
                            $row[2]
                           </a>
                            </div>
                          </td>
                         </tr>
                         <tr>
                           <td>
                           <input id='$tel_id' name='telephone' class='input_node' value='$row[4]' />
                             <a href='$phone'>Call</a>
                           </td>
                         </tr>
                         <tr><!-- Contact Search -->
                           <td colspan='2' align='right'>
                <a href='#' onclick=\"del_school_entry('$record_id');
                                      return false;\" >Delete</a>&nbsp;&nbsp;
                <a href='#' onclick=\"mask_link_form('contact_search','$tel_id');
                              switch_link_input('$form_id','email','$row[2]','$div_id');
                              return false;\" />Edit</a>
                &nbsp;&nbsp;
                <a href='#' onclick=\"unmask_link_form('contact_search','$tel_id');
                switch_input_link('$form_id','email','$row[0]','$row[1]','$email_id','$div_id');
                save_school_entry('$row[7]','$form_id','$email_id');
                return false;\" >Save</a>
                </td>
                         </tr>
                       </table>
                       </form>
                      </div>";

	// increment form id
	$id++;

      }

    // this is echo $output
    echo $output ;

  }

  /**
   * This function was orginally intended for the yahoo, autocompleter thing to see which name you were entering into the search contact
   *
   */
  function name_search($search)
  {
	     
    $sql = "SELECT contact, organization FROM " . TEL_CONTACT . " WHERE contact LIKE '$search%'";

    // cannot use a $db object here ... it's not initialized				
    if ( ! ( $result = mysql_query($sql) ) )
      {
	message_die(GENERAL_ERROR,'Could not connect to database for status change','',__LINE__,__FILE__,$sql);
      }

    $output = "<ul class='contacts' >";

    while ( $row = mysql_fetch_row($result) )
      {

	$output.="<li class='contact'><div class='image'><img src=''/></div><div class='name'>$row[0]</div><div class='email'><span class='informal'>$row[1]</span></div></li>";

      }

    $output.="</ul>";
      
    echo $output;
    exit ;
  }


  /** 
   * This function was orginally intended for the yahoo, autocompleter thing to see which contact you were entering into the search contact
   *
   */
  function organization_search($search)
  {
	     
    $sql = "SELECT organization, contact, location  FROM " . TEL_CONTACT . " WHERE organization LIKE '$search%'";

    // cannot use a $db object here ... it's not initialized				
    if ( ! ( $result = mysql_query($sql) ) )
      {
	message_die(GENERAL_ERROR,'Could not connect to database for status change','',__LINE__,__FILE__,$sql);
      }

    $output = "<ul class='contacts' >";

    while ( $row = mysql_fetch_row($result) )
      {

	$location = location($row[2]);

	$output.="<li class='contact'><div class='image'><img src=''/></div><div class='name'>$row[0]</div><div class='email'><span class='informal'>$row[1] - $location</span></div></li>";

      }

    $output.="</ul>";
      
    echo $output;
    exit ;
  }

  /** 
   * This function was orginally intended for the yahoo, autocompleter thing to see which name you were entering into the search contact
   *
   */
  function telephone_search($search)
  {
	     
    $sql = "SELECT telephone, organization, contact FROM tel_contact WHERE telephone LIKE '$search%'";

    // cannot use a $db object here ... it's not initialized				
    if ( ! ( $result = mysql_query($sql) ) )
      {
	message_die(GENERAL_ERROR,'Could not connect to database for status change','',__LINE__,__FILE__,$sql);
      }

    $output = "<ul class='contacts' >";

    while ( $row = mysql_fetch_row($result) )
      {

	$output.="<li class='contact'><div class='image'><img src=''/></div><div class='name'>$row[0]</div><div class='email'><span class='informal'>$row[1] - $row[2]</span></div></li>";

      }

    $output.="</ul>";
      
    echo $output;
    exit ;
  }

  /** 
   * Email search and respond to the autocompleter ...
   *
   */
  function email_search($search)
  {
	     
    $sql = "SELECT email, contact, organization FROM tel_contact WHERE email LIKE '$search%'";

    // cannot use a $db object here ... it's not initialized				
    if ( ! ( $result = mysql_query($sql) ) )
      {
	message_die(GENERAL_ERROR,'Could not connect to database for status change','',__LINE__,__FILE__,$sql);
      }

    $output = "<ul class='contacts' >";

    while ( $row = mysql_fetch_row($result) )
      {

	$output.="<li class='contact'><div class='image'><img src=''/></div><div class='name'>$row[0]</div><div class='email'><span class='informal'>$row[1] - $row[2]</span></div></li>";

      }

    $output.="</ul>";
      
    echo $output;
    exit ;
  }


  /** 
   * Save an entry here for the school from the school contact form...
   *
   */
  function save_school_entry($array_post)
  {

    @extract($array_post);

    $sql = "UPDATE " . TEL_CONTACT . " SET telephone = '$telephone', organization = '$organization', 
                                    title = '$title', contact = '$contact' , 
                                     location = '$location' , email = '$email' , 
                                      notes = '$notes', date = DATE(NOW()) 
                                       WHERE tel_id = '$save_school_entry'";
 
    if ( ! ( $result = mysql_query($sql) ) )
      {
	message_die(GENERAL_ERROR,'Could not store tel record','',__LINE__,__FILE__,$sql);
      }

  }

  /**
   * Delete the school entry in the school contact form
   *
   */
  function del_school_entry($rec_id)
  {

    $sql = "DELETE FROM tel_contact WHERE tel_id = $rec_id";

    if ( ! ( $result = mysql_query($sql) ) )
      {
	message_die(GENERAL_ERROR,'Could not store tel record','',__LINE__,__FILE__,$sql);
      }

  }

  /** 
   * Delete one of the matches from the control_panel. Didn't work out between teacher and school.
   *
   */
  function del_match($teacher_id,$job_id)
  {

    $sql = "UPDATE " . SENT_MATCH . " SET deleted=1 WHERE teacher_id = '$teacher_id' AND job_id = '$job_id' ";

    if ( ! ( $result = mysql_query($sql) ) )
      {
	message_die(GENERAL_ERROR,'Could not delete match','',__LINE__,__FILE__,$sql);
      }
    
  }

  /**
   * Complete the match between the candidate and the applicant. Set succes to yes, and aftercare to yes.
   *
   */
  function complete_match($teacher_id,$job_id)
  {

    // update the sent_match table to indicate that this is successful.
    $sql1 = "UPDATE sent_match SET success=1 AND deleted = 1 WHERE teacher_id = '$teacher_id' AND job_id = '$job_id' ";

    // put that teacher into the after care program.
    $sql2 = "UPDATE teachers SET aftercare=1 AND status = -1 WHERE teacher_id = '$teacher_id' ";

    if ( ! ( $result1 = mysql_query($sql1) ) || !( $result2 = mysql_query($sql2) ) )
      {
	message_die(GENERAL_ERROR,'Could not delete match','',__LINE__,__FILE__,$sql);
      }

  }

}

?>
